
Open SVG

        Paste markup
        Demo
        Contribute
        About
        Powered by the incredible SVGO


        IMAGE
        CODE
        40.7k - 15.51% saving
<svg xmlns="http://www.w3.org/2000/svg" viewBox="0 0 255.9 244.94">
    <defs>
        <style>
            .cls-1,.cls-15,.cls-23,.cls-24,.cls-53{fill:none;}.cls-2{fill:#fff;}.cls-3{fill:#ba8449;}.cls-4{fill:#fff8ee;}.cls-5{clip-path:url(#clip-path);}.cls-6{opacity:0.3;}.cls-7{clip-path:url(#clip-path-2);}.cls-8{clip-path:url(#clip-path-3);}.cls-9{fill:#895b2e;}.cls-10{fill:#e5d0ae;}.cls-11{clip-path:url(#clip-path-4);}.cls-12{opacity:0.15;}.cls-13{fill:#e3ab5e;}.cls-14{fill:#fcd4c3;}.cls-15{stroke:#f8a38f;}.cls-15,.cls-53{stroke-miterlimit:10;}.cls-15,.cls-24{stroke-width:2px;}.cls-16{clip-path:url(#clip-path-5);}.cls-17{opacity:0.5;}.cls-18{clip-path:url(#clip-path-6);}.cls-19{clip-path:url(#clip-path-7);}.cls-20{opacity:0.25;}.cls-21{clip-path:url(#clip-path-8);}.cls-22{clip-path:url(#clip-path-9);}.cls-23{stroke:#e5d0ae;stroke-width:3px;}.cls-23,.cls-24{stroke-linecap:round;stroke-linejoin:round;}.cls-24{stroke:#895b2e;}.cls-25{clip-path:url(#clip-path-10);}.cls-26{clip-path:url(#clip-path-11);}.cls-27{clip-path:url(#clip-path-12);}.cls-28{fill:#e5bfa1;}.cls-29{clip-path:url(#clip-path-13);}.cls-30{clip-path:url(#clip-path-14);}.cls-31{fill:#f8a38f;}.cls-32{clip-path:url(#clip-path-15);}.cls-33{clip-path:url(#clip-path-16);}.cls-34{fill:#f7e8d0;}.cls-35{clip-path:url(#clip-path-17);}.cls-36{fill:#d8cab2;}.cls-37{clip-path:url(#clip-path-18);}.cls-38{fill:#333;}.cls-39{clip-path:url(#clip-path-19);}.cls-40{clip-path:url(#clip-path-20);}.cls-41{fill:#fff7e3;}.cls-42{clip-path:url(#clip-path-21);}.cls-43{fill:#ffdc99;}.cls-44{clip-path:url(#clip-path-22);}.cls-45{fill:#eadcbe;}.cls-46{clip-path:url(#clip-path-23);}.cls-47{clip-path:url(#clip-path-24);}.cls-48{opacity:0.4;}.cls-49{clip-path:url(#clip-path-25);}.cls-50{clip-path:url(#clip-path-26);}.cls-51{fill:#1a1a1a;}.cls-52{clip-path:url(#clip-path-27);}.cls-53{stroke:#333;stroke-width:4px;}.cls-54{clip-path:url(#clip-path-28);}.cls-55{clip-path:url(#clip-path-29);}.cls-56{clip-path:url(#clip-path-30);}.cls-57{clip-path:url(#clip-path-31);}.cls-58{clip-path:url(#clip-path-32);}.cls-59{clip-path:url(#clip-path-33);}.cls-60{clip-path:url(#clip-path-34);}.cls-61{clip-path:url(#clip-path-35);}.cls-62{fill:#d0dddc;}.cls-63{clip-path:url(#clip-path-36);}.cls-64{clip-path:url(#clip-path-37);}.cls-65{clip-path:url(#clip-path-38);}.cls-66{clip-path:url(#clip-path-39);}.cls-67{clip-path:url(#clip-path-40);}.cls-68{clip-path:url(#clip-path-41);}.cls-69{opacity:0.1;}.cls-70{clip-path:url(#clip-path-42);}.cls-71{fill:#e24b31;}
        </style>
        <clipPath id="clip-path">
            <path d="M42.3 43.6h169.5v59.2H42.3z" class="cls-1"/>
        </clipPath>
        <clipPath id="clip-path-2">
            <path d="M44.8 39.3h33.4v16.2H44.8z" class="cls-1"/>
        </clipPath>
        <clipPath id="clip-path-3">
            <path d="M180.8 47.9h25.4v17.2h-25.4z" class="cls-1"/>
        </clipPath>
        <clipPath id="clip-path-4">
            <path d="M193.3 165.1h23.5v27.3h-23.5z" class="cls-1"/>
        </clipPath>
        <clipPath id="clip-path-5">
            <path d="M203 151.4h7.8v6.4H203z" class="cls-1"/>
        </clipPath>
        <clipPath id="clip-path-6">
            <path d="M215.7 149.8h7.7v7.2h-7.7z" class="cls-1"/>
        </clipPath>
        <clipPath id="clip-path-7">
            <path d="M204.3 161.6h15.8v8.6h-15.8z" class="cls-1"/>
        </clipPath>
        <clipPath id="clip-path-8">
            <path d="M222.8 159.5h5.7v5h-5.7z" class="cls-1"/>
        </clipPath>
        <clipPath id="clip-path-9">
            <path d="M65.9 151.2h128.9v36.5H65.9z" class="cls-1"/>
        </clipPath>
        <clipPath id="clip-path-10">
            <path d="M180.3 13.4h18V58h-18z" class="cls-1"/>
        </clipPath>
        <clipPath id="clip-path-11">
            <path d="M38.4 20.1h44.2v31.6H38.4z" class="cls-1"/>
        </clipPath>
        <clipPath id="clip-path-12">
            <path d="M180.9 10.8h26.2V55h-26.2z" class="cls-1"/>
        </clipPath>
        <clipPath id="clip-path-13">
            <path d="M61.5 33.2h117.3v111.9H61.5z" class="cls-1"/>
        </clipPath>
        <clipPath id="clip-path-14">
            <path d="M118.3 87.8h13.1v5.5h-13.1z" class="cls-1"/>
        </clipPath>
        <clipPath id="clip-path-15">
            <path d="M117.7 81.8h14.5v9.9h-14.5z" class="cls-1"/>
        </clipPath>
        <clipPath id="clip-path-16">
            <path d="M73.9 93.5h112.9v64.1H73.9z" class="cls-1"/>
        </clipPath>
        <clipPath id="clip-path-17">
            <path d="M79.8 94.5h93.6V142H79.8z" class="cls-1"/>
        </clipPath>
        <clipPath id="clip-path-18">
            <path d="M80.8 95.5h91.6V142H80.8z" class="cls-1"/>
        </clipPath>
        <clipPath id="clip-path-19">
            <path d="M81.8 96.5h89.6v45.4H81.8z" class="cls-1"/>
        </clipPath>
        <clipPath id="clip-path-20">
            <path d="M102.9 118h50.2v20.7h-50.2z" class="cls-1"/>
        </clipPath>
        <clipPath id="clip-path-21">
            <path d="M109.6 106.5h30.1v23.2h-30.1z" class="cls-1"/>
        </clipPath>
        <clipPath id="clip-path-22">
            <path d="M109.7 106.1h29.7v10.3h-29.7z" class="cls-1"/>
        </clipPath>
        <clipPath id="clip-path-23">
            <path d="M123.8 112.4h5.5v14.7h-5.5z" class="cls-1"/>
        </clipPath>
        <clipPath id="clip-path-24">
            <path d="M38.9 20.1h39.4v35.7H38.9z" class="cls-1"/>
        </clipPath>
        <clipPath id="clip-path-25">
            <path d="M59.7 57.3h133.7v42.5H59.7z" class="cls-1"/>
        </clipPath>
        <clipPath id="clip-path-26">
            <path d="M48.9 44.7h157.3v53.1H48.9z" class="cls-1"/>
        </clipPath>
        <clipPath id="clip-path-27">
            <path d="M64.2 52h50.5v34.2H64.2z" class="cls-1"/>
        </clipPath>
        <clipPath id="clip-path-28">
            <path d="M139.6 56.7h50.1v35h-50.1z" class="cls-1"/>
        </clipPath>
        <clipPath id="clip-path-29">
            <path d="M48.9 50.2h156.3v46H48.9z" class="cls-1"/>
        </clipPath>
        <clipPath id="clip-path-30">
            <path d="M51.4 45.8h20.2v3H51.4z" class="cls-1"/>
        </clipPath>
        <clipPath id="clip-path-31">
            <path d="M116.4 50.7h21.7V56h-21.7z" class="cls-1"/>
        </clipPath>
        <clipPath id="clip-path-32">
            <path d="M187.2 54.6h12.3v3.9h-12.3z" class="cls-1"/>
        </clipPath>
        <clipPath id="clip-path-33">
            <path d="M62.1 51.4H91V80H62.1z" class="cls-1"/>
        </clipPath>
        <clipPath id="clip-path-34">
            <path d="M164.9 56.4h27.8v30.5h-27.8z" class="cls-1"/>
        </clipPath>
        <clipPath id="clip-path-35">
            <path d="M65.6 53.4h47.8v27.5H65.6z" class="cls-1"/>
        </clipPath>
        <clipPath id="clip-path-36">
            <path d="M66.6 71.6h35.2v13.9H66.6z" class="cls-1"/>
        </clipPath>
        <clipPath id="clip-path-37">
            <path d="M141 58.1h47.7v25.5H141z" class="cls-1"/>
        </clipPath>
        <clipPath id="clip-path-38">
            <path d="M150 79h36.3v11.7H150z" class="cls-1"/>
        </clipPath>
        <clipPath id="clip-path-39">
            <path d="M87.1 63.8h2v2h-2z" class="cls-1"/>
        </clipPath>
        <clipPath id="clip-path-40">
            <path d="M166.1 68.5h2v2h-2z" class="cls-1"/>
        </clipPath>
        <clipPath id="clip-path-41">
            <path d="M51.8 47.7h64.8v9.5H51.8z" class="cls-1"/>
        </clipPath>
        <clipPath id="clip-path-42">
            <path d="M137.5 50.9h47.9v9.2h-47.9z" class="cls-1"/>
        </clipPath>
    </defs>
    <g id="Layer_2" data-name="Layer 2">
        <g id="Layer_1-2" data-name="Layer 1">
            <path d="M57.7 187.9l.6-1.5.1-.2c.5-1.2 1-2.5 1.5-3.7.6-1.6 1.2-3.3 1.8-4.9a23.07 23.07 0 0 0 1-2.8c.8-2.2 1.9-5.1 3.2-7.9a35.45 35.45 0 0 1 2.1-4c.8-1.3 1.6-2.5 2.5-3.7l.7-1 1.1-.7a2.2 2.2 0 0 1 .5-.3c.5-.3 1.1-.5 1.5-.7a25.57 25.57 0 0 1 2.6-.9c1.4-.4 3-.8 4.9-1.2 2.8-.6 5.8-1.2 9.6-1.8 5.7-.9 11.8-1.7 19.1-2.5 12.9-1.4 25.8-2.4 38.2-3 6.6-.3 11.6-.4 16.3-.4h3a87 87 0 0 1 10 .7 18 18 0 0 1 3.1.7 2.4 2.4 0 0 1 .7.3l1 .4.8.7.9.9a47.4 47.4 0 0 1 3.5 3.9 83.14 83.14 0 0 1 10.2 17.2 79.18 79.18 0 0 1 5.8 17.7l1.5 7.9h-18.4l-1.1-5.3c-1.2-5.6-16.3-20.4-23.8-23.3-.8-.3-4-1.2-13.9-1.2-20.4 0-49.2 3.6-53.3 4.5-4.9 2.3-12.4 11.9-16.7 21.5l-1.8 3.9" class="cls-2"/>
            <path d="M182.7 158.7a23.52 23.52 0 0 0-3-3.3l-.7-.7a.3.3 0 0 1-.2-.1 9 9 0 0 0-1.9-.4 88.75 88.75 0 0 0-9.1-.6c-6.3-.1-12.6.1-18.9.4-12.6.6-25.3 1.6-37.8 3-6.3.7-12.6 1.5-18.8 2.5-3.1.5-6.2 1-9.2 1.7-1.5.3-3 .7-4.4 1.1a11.76 11.76 0 0 0-2 .7c-.3.1-.6.2-.7.4a.1.1 0 0 0-.1.1c-.7 1-1.4 2-2.1 3.1a38.37 38.37 0 0 0-1.8 3.5c-1.1 2.4-2.1 4.9-3 7.4s-1.9 5.1-2.8 7.7c-.5 1.3-1 2.6-1.6 3.9a14.17 14.17 0 0 1-.8 1.8h8.5c4.6-10.3 13.3-22.1 20.5-25 2-.8 34.2-4.8 55.5-4.8 7.9 0 13.3.6 16.3 1.7 8.7 3.4 26.1 19.5 27.9 28.2h4.9a72.33 72.33 0 0 0-5.3-16.1 73.17 73.17 0 0 0-9.4-16.2" class="cls-3"/>
            <path d="M191.9 197.2l-1-5.4a67 67 0 0 0-4.8-14.6 67.7 67.7 0 0 0-8.6-14.4 19.58 19.58 0 0 0-1.8-2.1 70.12 70.12 0 0 0-8-.5h-2.8c-4.5 0-9.3.1-15.7.4-12.2.6-24.7 1.6-37.4 3-7.1.8-13 1.6-18.4 2.4-3.5.5-6.3 1.1-8.8 1.6-1.6.4-2.8.7-3.9 1-.2 0-.3.1-.4.1-.2.4-.5.7-.7 1.1-.5.8-.9 1.7-1.6 2.9-1.1 2.3-2 4.7-2.8 6.8-.4.9-.7 1.8-1 2.7-.6 1.7-1.2 3.4-1.9 5.1-.5 1.3-1.1 2.6-1.6 4l-.1.2c-.2.6-.5 1.2-.7 1.7l-1.8 4H56.4l-1.7-.8-.2-.1a7.14 7.14 0 0 1-3.9-7.1v-.3l.2-.9.3-1.1.6-2.2c.4-1.5.9-2.9 1.4-4.3q1.35-3.9 3.3-8.4a80 80 0 0 1 4.2-8.3c.7-1.3 1.5-2.6 2.5-4.1s1.9-2.8 2.9-4.1a11.06 11.06 0 0 1 2.3-2.2h.1a5.23 5.23 0 0 1 1.5-.9 17.8 17.8 0 0 1 2.1-1c1.2-.5 2.3-.8 3.2-1.1 2-.6 3.9-1 5.3-1.3 2.9-.6 6-1.2 9.9-1.8 5.8-.9 11.9-1.6 19.4-2.4 13-1.3 26-2.3 38.6-2.8 6-.2 10.7-.4 15-.4h4.6a85.82 85.82 0 0 1 10.7.8h.1a38.82 38.82 0 0 1 3.9.9h.1c.4.2 1 .4 1.7.7.5.3.9.5 1.2.7l.5.4.4.3.4.4 1.1 1.1a43.08 43.08 0 0 1 3.8 4.4 90.94 90.94 0 0 1 10.7 18.3 83.38 83.38 0 0 1 6.3 19.8l1.2 7.7h-18.2z" class="cls-2"/>
            <path d="M64.1 197.2l4.4-9.5c3.7-7.9 12.6-22.4 22.5-26.5l.2-.1c3.3-1.2 36.7-5.1 57.1-5.1 11.4 0 15.7 1.1 17.9 2 10.3 4 28.2 20.9 30.6 30.9l2 8.2H64.1z" class="cls-2"/>
            <path d="M185.2 197.2l-1.2-5.1c-1.1-4.7-15.2-18.8-22.5-21.7-.7-.3-3.6-1.1-13.2-1.1-19.6 0-48 3.5-52.6 4.4-3.8 1.9-10.7 10-15.2 19.6l-1.8 3.8H62.1l4.2-9.3c4.9-11 14.6-24.6 24.1-28.4 3.7-1.5 37.5-5.3 58-5.3 8.9 0 14.9.7 18.6 2.1 10.3 4 29.6 21.4 32 33l1.6 8z" class="cls-2"/>
            <path d="M192.9 197.2l-1.9-1.8c-7.2-6.7-9.2-20.6-7-26.3a7.64 7.64 0 0 1 7.1-5.1 5.82 5.82 0 0 1 1.9.3c1.3-.1 4.3-2.6 5.2-4a8.14 8.14 0 0 1 7.4-4.2c4.9 0 12.9 3.9 15.5 7.6a7.34 7.34 0 0 1 1.1 6.8c-.1.2-.2.6-.4 1.1-2.7 8.1-6.2 18-9 22.6l-1.9 3.1-18-.1z" class="cls-2"/>
            <path d="M192.3 197.2l6.2-10.1a111.2 111.2 0 0 0 6.5-12c-3.5 2.5-8.4 4-15.7 4.4l-.2-.2-.1.7a8.12 8.12 0 0 1-8-7.8 8.32 8.32 0 0 1 2.1-5.8 7.76 7.76 0 0 1 5.5-2.6c7.2-.3 8.1-2 9.4-4.5 1.8-3.4 5.7-5.4 10.8-5.4a15.8 15.8 0 0 1 3.8.4 13.08 13.08 0 0 1 10.7 12.4c.3 6.3-3.2 15.5-10.2 27.3l-1.9 3.2z" class="cls-2"/>
            <path d="M218.6 177.5c-8.1 0-16.9-5.3-21.4-10.5-4.1-4.7-4.5-8.9-4.1-11.6a7.77 7.77 0 0 1 8.1-6.6 21.12 21.12 0 0 1 2.6.2c.8-3.6 2.7-11.1 10.4-11.1h1.1a8.68 8.68 0 0 1 7.6 6.2 9.33 9.33 0 0 1 4.2-1.1 8.8 8.8 0 0 1 6.4 2.8 9.54 9.54 0 0 1 1.6 10.7 8.4 8.4 0 0 1 3.8 5 9.3 9.3 0 0 1-1.5 8.2c-3.5 4.9-11.6 7.2-18 7.4-.4.4-.6.4-.8.4m-8-164.7c-7.3 4.6-15.3 15.1-25.1 29.5a7.88 7.88 0 0 1-6.8 3.5c-3.6 0-8.2-2.2-13.5-6.5-8.4-6.8-8.6-10.6-8.7-12.1a7.5 7.5 0 0 1 7-7.8c8.1-.7 14.8-5.6 21.3-10.3s12.5-9 19.7-9a21 21 0 0 1 4.3.5" class="cls-2"/>
            <path d="M164.1 26.1c19.6-1.8 31.1-22.1 43-19-8 5-15.9 15-27 31.4-2.7 3.9-21.4-11.9-16-12.4" class="cls-4"/>
            <path d="M37.1 16.8C42 12.3 48.6 10 56.7 10c7 0 15.3 1.7 24.6 5.1a26.35 26.35 0 0 0 8.3 1.1h3.7c2.3 0 7.2 0 9.3 4.5a9.6 9.6 0 0 1-1.1 9.3c-3.3 5.1-12 10.5-20.4 10.5h-.4c-4.5-.1-8.7-2.5-13.6-5.2-6.1-3.4-13-7.3-21.2-7.3-1.1 0-2.3.1-3.4.2m145.4 37.1c-3.6 0-10.4-1.5-14.7-11.7a40 40 0 0 1-3.2-14.9c0-7 3.7-8.9 6-9.4a92.25 92.25 0 0 0 6.8-8.8C191.9 8.1 198.5 0 206.2 0a9.37 9.37 0 0 1 3.7.7c10.3 4.1 15.3 12.8 13.6 23.8-1.2 8.1-6.3 17.7-13.8 26.5-3.5 4.1-12.6 13.7-20.7 14.3h-1.1" class="cls-2"/>
            <path d="M69.7 69.1a11 11 0 0 1-2.6-.2c-12.8-2.1-28.8-15-34.8-28.3-4.1-9.1-2.3-15.3 0-18.9a18.1 18.1 0 0 1 16-9c8.2 0 16.4 4.5 23.6 8.4 2.8 1.5 6.8 3.7 8.5 4.1a5.82 5.82 0 0 1 1.9-.3 7.4 7.4 0 0 1 6.4 3.8c3.3 5.8 1.3 21.4-3.9 30.4-3.6 6.6-9 10-15.1 10z" class="cls-2"/>
            <path d="M114.3 180.7c-30 0-59.7-14.7-69.6-25.4-10.3-11.1-14-23.7-11.2-37.5 2.4-11.3 8.7-21.4 14.2-30.4 3.8-6.2 7.4-12 8.4-16.2 12.2-53.9 42.8-60.8 68.1-60.8 1.6 0 3.3 0 5.2.1 53.9 1.6 59.3 27.6 62.5 43.2a52.05 52.05 0 0 0 1.9 7.4c18.1 44.4 21.1 71 10 89-10.9 17.7-34.8 26.4-82.4 30.3-2.3.2-4.7.3-7.1.3z" class="cls-2"/>
            <path d="M113.2 180.8c-30.6 0-58.9-15.2-68.4-25.5-10.3-11.1-14-23.7-11.2-37.5 2.4-11.3 8.7-21.4 14.2-30.4 3.8-6.2 7.4-12 8.4-16.2C68.4 17.3 99 10.4 124.3 10.4c1.6 0 3.3 0 5.2.1 53.9 1.6 59.3 27.6 62.5 43.2a52.05 52.05 0 0 0 1.9 7.4c17.8 43.7 20.7 70.1 9.8 88.1-12.5 20.7-41.9 27.4-82.1 31.2a78.72 78.72 0 0 1-8.4.4" class="cls-2"/>
            <path d="M191.1 143.2c.4-.9.8-1.9 1.2-2.8 4.1-9.8 7.2-18.4 2.3-23.9-5.8-6.4-30.3-18-52.1-28.2-41.7-19.7-67.5-32.4-71.2-45a11.64 11.64 0 0 1 1.2-9.3c7.2-11.3 27.3-23.4 54.8-23.4h.8c25.9.2 44.7 7.7 56 22.1 9.6 12.2 11.7 26.5 13.3 36.9.5 3.5 1.2 8 1.9 9.2 19.6 33.7 10.6 58.6 3.5 70.3z" class="cls-2"/>
            <path d="M170.6 104.4c-10.1 0-27-2.5-32.8-8.1-4.6-4.4-6.3-11.7-8.1-18.8-.7-3-1.9-7.8-3-10h-.1l-1.3 3.6c-2.7 7.6-6.5 18.1-14.4 23.8-3.4 2.5-15.7 4.7-25.2 4.7s-16.7-2-21.5-6.1C57.3 87.7 52.1 77 48.6 61.7c-.2-.1-.3-.2-.5-.3-1.6-1.1-3.7-2.4-4.8-4.7-1.8-3.6-1.1-10 .8-13.4a8.16 8.16 0 0 1 6.4-4.3h.9a23.74 23.74 0 0 1 4.4.5 29.56 29.56 0 0 0 5.1.6h.9a182.3 182.3 0 0 1 26.5-2c19.7 0 30.1 4 34 5.6a6.9 6.9 0 0 1 .8.3 22.13 22.13 0 0 0 5.4.7 8.58 8.58 0 0 0 2.3-.2 162.82 162.82 0 0 1 25.2-2c20.8 0 31.8 4.7 36.6 6.8a3 3 0 0 0 1.1.4h.4a30.9 30.9 0 0 0 4.8-.7c1.2-.3 2.4-.5 3.5-.7h.9a8.8 8.8 0 0 1 7.6 4.8c1.9 3.5 3.2 10.8.5 15-1.8 2.8-4.7 4.1-7.1 5.2a4.67 4.67 0 0 0-1 .5c-.8 1.4-2.2 4.2-3.4 6.5-3.5 6.8-7.4 14.6-11 18.8-3.2 3.6-9.2 5.3-18.3 5.3" class="cls-2"/>
            <path d="M166.58 102.78c-8 0-19.3-1.2-27.4-6.9-4.6-3.3-6.7-9.9-9.6-20.5a86.76 86.76 0 0 0-2.9-9.3c-.5 1.2-1.1 2.8-1.6 4.1-3 8.1-7.1 19.1-14.6 23.7-3.9 2.4-16 4.6-25.4 4.6-10.1 0-17.4-2.3-21.6-6.7-10.7-11.2-12.8-21.9-14.1-28.2-.2-.9-.4-2.1-.6-2.8-6.3-3.3-6.7-8.2-6.6-10.3a7.1 7.1 0 0 1 7-6.8 9 9 0 0 1 5.3 2 .52.52 0 0 0 .4.2 1.06 1.06 0 0 1 .5.2 9.38 9.38 0 0 1 7.3 7.9 105.3 105.3 0 0 0 4.4 14.2c4.1 10.7 7 12.5 7.3 12.6a35.88 35.88 0 0 0 11.9 1.8 55.9 55.9 0 0 0 16.1-2.4c1.5-2.3 4.5-8.3 6.6-12.4 6.3-12.5 7.4-14.4 10.1-15.8a11.62 11.62 0 0 1 5.6-1.2 28.17 28.17 0 0 1 9.3 1.6c4.6 2 7 8 12.4 23.5 1 2.8 2.2 6.4 3 8.2 4 1.9 13.1 3.2 22.6 3.2 2.7 0 4.7-.1 6-.2l3.3-6.9c7.6-16.2 8.8-18.1 10.7-19.6a24.52 24.52 0 0 1 12.4-4.2 7.2 7.2 0 0 1 7.4 5.7c1.1 5.8-4.6 8-6.5 8.7l-1.7.7c-.7 1.2-2 3.8-3 5.9-8.2 16-10.9 20.4-14 22.3-3.8 2.1-13 3.1-20 3.1" class="cls-5 cls-6 cls-2"/>
            <path d="M61.2 55.42c-1.2 0-3.5-.2-8.1-1.7-1.2-.4-2.3-.8-3-1.1-1.5-.6-5.4-2.1-5.4-6.7v-6.7h6.6a8.48 8.48 0 0 1 2 .3c1.4.2 5.9.5 7.4.6l.9.1c1.2 0 4.9-.5 6.5-.7a23 23 0 0 1 3.4-.4h5.7l.9 5.6a6.74 6.74 0 0 1-4.8 7.4c-.2.1-.9.3-1.5.5-3.5 1.3-7 2.5-10 2.6a.73.73 0 0 1-.6.2" class="cls-7 cls-6 cls-2"/>
            <path d="M193.3 65c-2.2 0-4.4-.9-7.4-3s-5.1-4-5.1-7.5v-6.7h6.5a6.6 6.6 0 0 1 2.7.6c.7.3 3.4 1.2 4.6 1.5.4 0 1.2-.2 2.8-.5a7.14 7.14 0 0 1 2-.2h5.7l.9 5.6a6.67 6.67 0 0 1-4.5 7.4l-1.2.6a24.07 24.07 0 0 1-6 2.3 2.8 2.8 0 0 0-1-.1" class="cls-8 cls-6 cls-2"/>
            <path d="M171.5 211.9h-24.6v-21.3h24.6z" class="cls-2"/>
            <path d="M182.7 158.7a23.52 23.52 0 0 0-3-3.3l-.7-.7a.3.3 0 0 1-.2-.1 9 9 0 0 0-1.9-.4 88.75 88.75 0 0 0-9.1-.6c-6.3-.1-12.6.1-18.9.4-12.6.6-25.3 1.6-37.8 3-6.3.7-12.6 1.5-18.8 2.5-3.1.5-6.2 1-9.2 1.7-1.5.3-3 .7-4.4 1.1a11.76 11.76 0 0 0-2 .7c-.3.1-.6.2-.7.4a.1.1 0 0 0-.1.1c-.7 1-1.4 2-2.1 3.1a38.37 38.37 0 0 0-1.8 3.5c-1.1 2.4-2.1 4.9-3 7.4s-1.9 5.1-2.8 7.7c-.5 1.3-1 2.6-1.6 3.9a14.17 14.17 0 0 1-.8 1.8h8.5c4.6-10.3 13.3-22.1 20.5-25 2-.8 34.2-4.8 55.5-4.8 7.9 0 13.3.6 16.3 1.7 8.7 3.4 26.1 19.5 27.9 28.2h4.9a72.33 72.33 0 0 0-5.3-16.1 73.17 73.17 0 0 0-9.4-16.2" class="cls-3"/>
            <path d="M178.9 154.5zm17.8 17.9a79.6 79.6 0 0 0-9.9-16.9 39 39 0 0 0-3.3-3.8l-.9-.9-.2-.2-.1-.1-.2-.2a2.2 2.2 0 0 1-.5-.3 3.55 3.55 0 0 0-.9-.4 19 19 0 0 0-2.8-.7 83.68 83.68 0 0 0-9.8-.7c-6.5-.1-12.8 0-19.2.3-12.8.5-25.5 1.5-38.2 2.8-6.3.7-12.7 1.4-19.1 2.4-3.2.5-6.3 1-9.5 1.7-1.6.4-3.2.7-4.8 1.2a15.25 15.25 0 0 0-2.5.9c-.4.2-.9.4-1.4.7a5.58 5.58 0 0 1-.8.5 4.64 4.64 0 0 0-1 1c-.9 1.1-1.8 2.4-2.6 3.6s-1.6 2.5-2.3 3.8c-1.4 2.5-2.7 5.1-3.9 7.7s-2.2 5.2-3.1 7.9a26.43 26.43 0 0 0-1.2 4l-.6 2-.3 1-.1.5c0 .1.2.2.6.5H64c.3-.6.5-1.2.8-1.8.5-1.3 1.1-2.6 1.6-3.8 1-2.6 1.9-5.1 2.8-7.7s1.9-5.1 3-7.4c.6-1.2 1.2-2.3 1.8-3.5a33.68 33.68 0 0 1 2.1-3.1.1.1 0 0 0 .1-.1 2.5 2.5 0 0 0 .7-.4c.6-.2 1.3-.5 2-.7 1.4-.4 2.9-.8 4.4-1.1 3-.7 6.1-1.2 9.2-1.7 6.2-1 12.5-1.8 18.8-2.5q18.9-2.1 37.8-3c6.3-.3 12.6-.5 18.9-.4a86.9 86.9 0 0 1 9.1.6c.7.1 1.4.3 1.9.4.1 0 .2 0 .2.1l.7.7c1.1 1.1 2 2.2 3 3.3a80.42 80.42 0 0 1 9.4 15.8 72.33 72.33 0 0 1 5.3 16.1h5a65.7 65.7 0 0 0-2.2-9c-1.2-3.1-2.4-6.1-3.7-9.1" class="cls-9"/>
            <path d="M163.9 164.3c-2.6-1-7.9-1.6-15.5-1.6-21.4 0-53 4-54.7 4.7-6.5 2.6-14.6 13.6-19.1 23.2h115.9c-1.9-7.5-18-22.9-26.6-26.3" class="cls-4"/>
            <path d="M164.6 162.4c-2.9-1.1-8.4-1.7-16.3-1.7-21.3 0-53.5 4-55.5 4.8-7.3 3-15.9 14.7-20.5 25h2.2C79 181 87.1 170 93.6 167.3c1.7-.7 33.3-4.7 54.7-4.7 7.6 0 12.9.5 15.5 1.6 8.6 3.3 24.7 18.8 26.6 26.3h2c-1.7-8.6-19.1-24.7-27.8-28.1" class="cls-10"/>
            <path d="M204.2 163.3c-1.2 2.5-7.5 8.9-12.8 7.4-2.8-.8-2.3 14 4.1 19.9h11.6c3.2-5.1 8.2-20.7 8.8-22.3.7-1.9-10.5-7.5-11.7-5" class="cls-3"/>
            <path d="M216.5 167a6.6 6.6 0 0 0-5.5-6.3c-2.7-.6-6.3-.1-7.2 1.6-1.8 3.4-4 7.5-14.9 8.1a1.35 1.35 0 0 0 .1 2.7c11.4-.5 14.7-4.9 17.1-9.4a7.33 7.33 0 0 1 5.4 0 3.67 3.67 0 0 1 2.4 3.5c.3 6.2-6.2 17.7-9.7 23.5h3.1c3.9-6.8 9.5-17.3 9.2-23.7" class="cls-9"/>
            <path d="M194 190.9c7.1-1.7 13.4-8.8 13.9-18.9.1-1.9-3.8-5.5-3.8-6.5s11.9.2 12.5 3-7.4 19.7-10.1 22.5-16.7.9-12.5-.1" class="cls-11 cls-12 cls-13"/>
            <path d="M199.6 156.4c-.9 6.2 11.2 14.7 19.4 14.5 6.8-.2 14.5-3.4 13.4-7.2s-7.7.7-8.3-2 7.7-7.5 4.4-11.1c-3.1-3.3-6.7 5.2-10.3 4s.7-9.5-3.8-10c-5.3-.5-3.3 11.3-7.3 11.5-2.8.3-7.2-1.7-7.5.3" class="cls-14"/>
            <path d="M199.6 156.4c-.9 6.2 11.2 14.7 19.4 14.5 6.8-.2 14.5-3.4 13.4-7.2s-7.7.7-8.3-2 7.7-7.5 4.4-11.1c-3.1-3.3-6.7 5.2-10.3 4s.7-9.5-3.8-10c-5.3-.5-3.3 11.3-7.3 11.5-2.8.3-7.2-1.7-7.5.3z" class="cls-15"/>
            <path d="M203 156.34c1.3 1 6 2.3 6.7.6s1.4-5.1.9-5.6c-.4 1.6-.9 4.6-2.6 5.3-1.3.5-4.1-.1-5-.3" class="cls-16 cls-17 cls-14"/>
            <path d="M216 149.74c-.2 1.1-1.1 6.3 1.6 7 2.3.6 4-.8 5.8-3.7-1 .9-3.5 3.1-5.4 2.3s-2.1-2.9-2-5.6" class="cls-18 cls-17 cls-14"/>
            <path d="M204.38 163.76c13.6-6.7 16.4 4.2 15.7 6.4-5.4.9-14.9-4.7-15.7-6.4" class="cls-19 cls-20 cls-14"/>
            <path d="M224.15 159.5c-2.3 2.6-1.2 4.7.3 5 1.9.4 4.4-1.6 4-1.6s-4.2 1.2-4.9-.6a3 3 0 0 1 .6-2.8" class="cls-21 cls-17 cls-14"/>
            <path d="M68.83 176.87c43.7 25.1 130.4-.4 125.8-8.6-6.1-10.9-8.5-17.7-21.9-17.1s-98.9 7.5-102.4 10.1-7.2 12.3-1.5 15.6" class="cls-22 cls-12 cls-13"/>
            <path d="M164.1 26.1c19.6-1.8 31.1-22.1 43-19-8 5-15.9 15-27 31.4-2.7 3.9-21.4-11.9-16-12.4" class="cls-4"/>
            <path d="M164.1 26.1c19.6-1.8 31.1-22.1 43-19-8 5-15.9 15-27 31.4-2.7 3.9-21.4-11.9-16-12.4z" class="cls-23"/>
            <path d="M41.6 21.7c8.8-8.2 24.7-5 37.5-.4 7.3 2.6 16.8.5 17.4 2 1.6 3.5-7.9 10.7-15.7 10.5S60.2 19.2 41.6 21.7" class="cls-3"/>
            <path d="M41.6 21.7c8.8-8.2 24.7-5 37.5-.4 7.3 2.6 16.8.5 17.4 2 1.6 3.5-7.9 10.7-15.7 10.5S60.2 19.2 41.6 21.7z" class="cls-24"/>
            <path d="M177.5 35.8c4.5 1.3 21.6-32.2 29.9-28.9 26.4 10.5-8 50.9-18.9 51.8S175 35 177.5 35.8" class="cls-14"/>
            <path d="M177.5 35.8c4.5 1.3 21.6-32.2 29.9-28.9 26.4 10.5-8 50.9-18.9 51.8S175 35 177.5 35.8z" class="cls-15"/>
            <path d="M82.1 31.8C74.8 35 48.9 7.9 38 25.3 30.8 36.8 52.6 60 68.2 62.5s17.7-32.4 13.9-30.7" class="cls-14"/>
            <path d="M82.1 31.8C74.8 35 48.9 7.9 38 25.3 30.8 36.8 52.6 60 68.2 62.5s17.7-32.4 13.9-30.7z" class="cls-15"/>
            <path d="M197.87 13.4c-1.4 4.6-13.2 16.5-11.6 26.7.6 3.8 4.6 15 6.3 14.6s6-3.1 5.6-2.5a55.94 55.94 0 0 1-8.1 5.8c-2.1-1.1-11-21.8-9.7-22.9 3.9-3.5 15.8-21.5 17.5-21.7" class="cls-25 cls-14"/>
            <path d="M38.33 26c8-4.9 22.6-2.8 31.1 5.5 3 3 3.9 13-2.9 19.8-2.7 2.7 16-9.6 16.1-13.2s-1.2-4.6-4-5.6c-10.3-3.8-21.1-12.6-30.5-12.4a11.18 11.18 0 0 0-9.8 5.9" class="cls-26 cls-14"/>
            <path d="M201.1 10.77c18.2 10-11.1 25.2-8.9 44.1-3.8-.4-13.2-18.7-10.9-20.3 3.2-2.2 16.7-24.6 19.8-23.8" class="cls-27 cls-20 cls-14"/>
            <path d="M60.7 72.2a18.25 18.25 0 0 0 .5-4 27 27 0 0 1 .5-4.1 6.64 6.64 0 0 1 .6-2 14.58 14.58 0 0 0 .7-1.9c.5-1.3 1-2.6 1.6-3.8A84.56 84.56 0 0 1 72.7 42a74.4 74.4 0 0 1 10.7-12.3A44.9 44.9 0 0 1 97.1 21a57.33 57.33 0 0 1 15.8-4 109.8 109.8 0 0 1 16.2-.7 146.92 146.92 0 0 1 16.2 1.1 74.5 74.5 0 0 1 16 3.8 51.16 51.16 0 0 1 7.5 3.5 36.6 36.6 0 0 1 6.8 5.1 31.18 31.18 0 0 1 5.4 6.6 41.63 41.63 0 0 1 3.6 7.7 72.73 72.73 0 0 1 2.2 8c.6 2.7 1 5.3 1.6 7.8.3 1.2.7 2.4 1.1 3.6s1 2.5 1.4 3.8c.9 2.5 1.9 5.1 2.8 7.6a211.7 211.7 0 0 1 8.5 31.2 108.54 108.54 0 0 1 1.7 16.1 54 54 0 0 1-1.9 16c-.4 1.3-.8 2.6-1.3 3.8s-1.2 2.4-1.6 3.7a10.66 10.66 0 0 1-.7 1.9 17.4 17.4 0 0 1-1.1 1.8 26 26 0 0 1-2.5 3.3 43.7 43.7 0 0 1-12.8 10.2 76.65 76.65 0 0 1-15.2 6.1c-5.3 1.5-10.5 2.7-15.9 3.7s-10.7 1.7-16 2.4l-8.1.9-4 .4-4.1.3a101.7 101.7 0 0 1-32.5-3.9 117.4 117.4 0 0 1-15.4-5.5 100.65 100.65 0 0 1-14.5-7.7 53.86 53.86 0 0 1-6.7-5.1c-.5-.5-1.1-1-1.6-1.5s-.9-1.1-1.4-1.6c-.9-1.1-1.8-2.2-2.6-3.3a35.6 35.6 0 0 1-4.9-32.4 78.8 78.8 0 0 1 6.7-15.1c2.7-4.7 5.6-9.3 8.4-13.8q2.1-3.45 3.9-6.9a58.26 58.26 0 0 0 2.6-7.7zm4 .9a36.34 36.34 0 0 1-3.2 7.9c-1.3 2.5-2.7 4.8-4.1 7.1-2.8 4.6-5.7 9.1-8.2 13.7a72 72 0 0 0-6.2 14.3 34.7 34.7 0 0 0-1.2 15 32.17 32.17 0 0 0 5.9 13.7c.7 1 1.6 2 2.4 3a17.88 17.88 0 0 0 1.3 1.4 15.94 15.94 0 0 0 1.3 1.3 49.16 49.16 0 0 0 6.1 4.7 97.07 97.07 0 0 0 13.9 7.4 109.83 109.83 0 0 0 14.9 5.3 117 117 0 0 0 15.4 3.2 90.57 90.57 0 0 0 15.6.7l3.9-.3 4-.4c2.6-.2 5.3-.5 8-.8 5.3-.5 10.6-1.2 15.8-2.1a157.84 157.84 0 0 0 15.5-3.3 109 109 0 0 0 14.9-5.1 45.26 45.26 0 0 0 13-8.6 35.84 35.84 0 0 0 2.6-2.9c.4-.5.8-1.1 1.2-1.6s.9-1 1.3-1.6a17 17 0 0 0 1.9-3.5 24 24 0 0 0 1.2-3.8 53.23 53.23 0 0 0 1.3-15.9 94.68 94.68 0 0 0-2.6-15.8 229.06 229.06 0 0 0-10.1-30.3c-1-2.5-2-5-3-7.4l-1.6-3.7c-.5-1.3-1-2.7-1.4-4-.7-2.7-1.2-5.3-1.8-7.9a58.88 58.88 0 0 0-2-7.5 31.4 31.4 0 0 0-7.9-12.8 41.14 41.14 0 0 0-12.9-8.2 71.26 71.26 0 0 0-15.2-4.2 138.73 138.73 0 0 0-15.8-1.7 106.87 106.87 0 0 0-16 .3 54.32 54.32 0 0 0-15.4 3.8A42.7 42.7 0 0 0 84.3 31 43.8 43.8 0 0 0 75 43.6a87.2 87.2 0 0 0-5.6 14.7c-.4 1.2-.7 2.5-1 3.8-.2.6-.3 1.3-.5 1.9-.1.3-.1.7-.2 1a3.55 3.55 0 0 1-.4.9c-.5 1.2-1.1 2.4-1.7 3.6-.2 1.1-.6 2.3-.9 3.6z" class="cls-10"/>
            <path d="M62.7 72.7c-4.2 18.6-40.9 48-13 78.1 9.5 10.2 40.3 25.9 71.2 23 80.4-7.6 100.7-27 66.8-110.2-5.5-13.5.7-44.7-58.4-46.5-24.8-.7-54.6 2.7-66.6 55.6" class="cls-4"/>
            <path d="M76.6 36.3a37.3 37.3 0 0 1 9.8-10A53.64 53.64 0 0 1 98.8 20c8.8-3.2 18-4.4 27.2-4.7a102 102 0 0 1 27.5 2.8 58.3 58.3 0 0 1 13.1 5.1 45.6 45.6 0 0 1 11.4 8.6 47.08 47.08 0 0 1 8.1 11.7 65.9 65.9 0 0 1 4.7 13.3 133.9 133.9 0 0 1 2.4 13.6 64.86 64.86 0 0 0 1.1 6.6 17.08 17.08 0 0 0 .8 2.9l.3.6.1.1.1.1.2.4.9 1.5a75.87 75.87 0 0 1 8.9 26.3 59.54 59.54 0 0 1 .2 14 48.86 48.86 0 0 1-3.5 13.5 61.08 61.08 0 0 1-3.1 6.3l-.9 1.5c-.3.5-.6.9-1 1.5-.1.1-.1.2-.2.3-.3-.2.4.7-1.6 0-.5-.9-.2-.7-.3-.9s.1-.4.1-.6l.3-.9.5-1.6a65.7 65.7 0 0 0 3.1-13.1 30 30 0 0 0 0-6.7 15.7 15.7 0 0 0-2-6.1 6.42 6.42 0 0 0-1-1.3c-.4-.4-.7-.8-1.1-1.2a26.22 26.22 0 0 0-2.5-2.2 33.56 33.56 0 0 0-5.7-3.5 29.12 29.12 0 0 0-13-2.3 58.9 58.9 0 0 0-13.2 2.3c-2.2.6-4.3 1.3-6.5 2-1.1.4-2.2.7-3.3 1a9.5 9.5 0 0 1-1.8.4 9.85 9.85 0 0 1-1.7.2 105.43 105.43 0 0 1-13.8.7 72.13 72.13 0 0 1-13.8-1.6 68.2 68.2 0 0 1-13.2-4.4 55.68 55.68 0 0 1-11.8-7.4 61.14 61.14 0 0 1-9.6-10.1 62.5 62.5 0 0 1-11.1-25.3A58.88 58.88 0 0 1 73 49.5a41.92 41.92 0 0 1 .9-7 29.2 29.2 0 0 1 2.7-6.2zm2 1.3a19.7 19.7 0 0 0-2.3 6 46.23 46.23 0 0 0-.9 6.5 53.23 53.23 0 0 0 1.2 13.2 60.45 60.45 0 0 0 11 24 59.08 59.08 0 0 0 9.2 9.5 54.4 54.4 0 0 0 11.2 7.1 60.4 60.4 0 0 0 12.6 4.3 65.38 65.38 0 0 0 13.2 1.7 85.8 85.8 0 0 0 13.4-.5l1.7-.2c.5-.1 1-.2 1.6-.3l3.2-.9c2.2-.6 4.4-1.3 6.6-1.8a56.6 56.6 0 0 1 13.7-1.9 31.45 31.45 0 0 1 13.5 2.8 32.08 32.08 0 0 1 5.9 3.6 28.48 28.48 0 0 1 2.6 2.3l1.2 1.2a7.55 7.55 0 0 1 1.1 1.4 15.75 15.75 0 0 1 2.3 6.7 32.86 32.86 0 0 1 .1 7 68.72 68.72 0 0 1-2.7 13.5l-.5 1.6-.2.8c0 .1-.1.3 0 .3-.1-.1.2.2-.2-.7-1.9-.7-1.2.2-1.4-.1.2-.4.5-.9.8-1.4s.5-1 .8-1.5a66.45 66.45 0 0 0 2.7-6.1 51.44 51.44 0 0 0 2.1-26.1 61.47 61.47 0 0 0-3.6-12.7 93.83 93.83 0 0 0-5.7-12l-.8-1.4-.2-.4-.1-.2-.1-.2a3.55 3.55 0 0 1-.4-.9 29.15 29.15 0 0 1-1.1-3.6c-.5-2.3-.9-4.6-1.2-6.8-.7-4.5-1.3-8.9-2.4-13.2a58.7 58.7 0 0 0-4.3-12.4 42.78 42.78 0 0 0-7.2-10.7c-5.8-6.3-13.8-10.5-22.3-13a94 94 0 0 0-26.5-3.3 83.4 83.4 0 0 0-26.3 3.9A48.6 48.6 0 0 0 88 28.5a30.26 30.26 0 0 0-9.4 9.1z" class="cls-28"/>
            <path d="M75.4 35.8a34.36 34.36 0 0 1 5.1-6.1 44.27 44.27 0 0 1 6-4.7 62.2 62.2 0 0 1 13.4-6.7 82.67 82.67 0 0 1 29.1-4.4c9.7.3 19.5 1.5 28.9 4.9a52.6 52.6 0 0 1 13.3 6.9 46.8 46.8 0 0 1 10.7 10.6 55.7 55.7 0 0 1 6.8 13.3 91.92 91.92 0 0 1 3.5 14.2c.4 2.4.7 4.7 1.1 7.1s.7 4.7 1.1 6.8a11 11 0 0 0 .9 2.9l.1.2.1.2.2.4.4.8.9 1.6c1.1 2.1 2.2 4.3 3.2 6.5a80.9 80.9 0 0 1 4.6 13.9 63.8 63.8 0 0 1 1.6 14.5 54.32 54.32 0 0 1-7.9 27.8 1.33 1.33 0 0 1-1.8.5 1.38 1.38 0 0 1-.6-1.6c1.4-3.6 2.9-7 4-10.5a33.1 33.1 0 0 0 2-10.6 15.45 15.45 0 0 0-3-9.6 2.18 2.18 0 0 0-.4-.5l-.2-.2-.2-.3-.9-.9a16.32 16.32 0 0 0-2-1.7c-1.4-1.1-3-2.1-4.5-3.1-6.3-3.9-13-7.3-19.8-10.7s-13.7-6.5-20.5-9.6c-13.8-6.3-27.6-12.6-41.2-19.4-6.8-3.5-13.5-7-20.1-11.2a105.54 105.54 0 0 1-9.8-7.5 20.32 20.32 0 0 1-4.2-5.2 9.42 9.42 0 0 1-1.2-4 9.74 9.74 0 0 1 .2-2.4 5.64 5.64 0 0 1 .4-1.2 4.6 4.6 0 0 1 .5-1zm5.6 3.4c-.2.3-.1.2-.2.3s0 .1-.1.2v.4a6.25 6.25 0 0 0 .4 1.4 13.5 13.5 0 0 0 2.9 3.6 56.56 56.56 0 0 0 8.5 6.6c6.1 4.1 12.7 7.7 19.4 11.3 13.3 7 27 13.5 40.6 20.1 6.8 3.3 13.6 6.7 20.4 10.1a208.54 208.54 0 0 1 20 11.3 52 52 0 0 1 4.7 3.5c.8.6 1.5 1.3 2.3 2a13.07 13.07 0 0 1 1.1 1.2l.2.3.3.3c.2.2.3.4.5.6a19.33 19.33 0 0 1 2.7 5.6 21.2 21.2 0 0 1 .7 6.1 38.2 38.2 0 0 1-2.5 11.6c-1.3 3.7-2.9 7.1-4.4 10.6l-2.4-1.2a51 51 0 0 0 6.8-26.4 67.23 67.23 0 0 0-6.5-26.7c-1-2.1-2-4.2-3.2-6.2l-1.8-3.2a15.57 15.57 0 0 1-1.3-3.8c-.6-2.5-1-4.8-1.4-7.2s-.8-4.7-1.2-6.9a84.06 84.06 0 0 0-3.6-13.3 49.44 49.44 0 0 0-6.3-11.8 39.5 39.5 0 0 0-9.5-9.2 47.85 47.85 0 0 0-12-5.9c-8.6-2.9-17.8-3.9-27-4a77.14 77.14 0 0 0-13.6 1 71.8 71.8 0 0 0-13.1 3.3 57.8 57.8 0 0 0-12 5.8 34.18 34.18 0 0 0-5.2 4 29.67 29.67 0 0 0-4.2 4.6z" class="cls-9"/>
            <path d="M77.6 36.9c-11 17 2.1 82.3 71.2 73.5 7.3-.9 31.6-13.9 48 4.3 8.9 10-3.1 35.3 0 30 3.5-5.8 16.9-28.2-3.2-62.7-6.4-11.1 4.2-64.4-65-65.1-26.5-.1-43.7 8.7-51 20" class="cls-3"/>
            <path d="M75.77 41c19.9-12.8 80.1-11.9 99.3 18.8 12.8 20.4-10.6 70.8-19.3 77.2s-20.6 12-52.2 4.4c-26.8-6.4 13.5-31.3-17.9-34.9C57 103.23 54.07 55 75.77 41" class="cls-29 cls-12 cls-13"/>
            <path d="M131.4 90.57c0 1.5-2.9 2.8-6.5 2.8s-6.5-1.2-6.5-2.8 2.9-2.8 6.5-2.8 6.5 1.3 6.5 2.8" class="cls-30 cls-20 cls-13"/>
            <path d="M119.9 82.4c1.5-1 9.5-.7 10.5.4s3.2 5.2.7 7c-.9.6-.9-1.9-2.9-1.5-2.4.5-1.1 3.6-3 3.6-2.9-.1-.1-3.4-2.6-3.8-1.9-.4-2.3 1.5-3.2 1.3-2.9-.6-1.6-5.6.5-7" class="cls-31"/>
            <path d="M124.22 81.8a10.54 10.54 0 0 0-4.3.6c-2.1 1.4-3.4 6.4-.6 6.9h.1c.7 0 1.1-1.4 2.6-1.4h.5c2.5.4-.2 3.8 2.6 3.8 1.8 0 .5-3 3-3.5h.4c1.4 0 1.6 1.6 2.2 1.6a.37.37 0 0 0 .3-.1c2.6-1.8.4-6-.7-7-.5-.5-3.4-.9-6.1-.9m0 .7c3 0 5.3.4 5.7.7a6.8 6.8 0 0 1 1.6 4.4 2.1 2.1 0 0 1-.7 1.4c0-.1-.1-.1-.2-.2a2.7 2.7 0 0 0-2.1-1.3.75.75 0 0 0-.5.1c-1.7.4-2 1.7-2.3 2.6s-.3.9-.6.9c-.8 0-.8-.2-.8-1.1s0-2.3-1.8-2.6h-.6a3.57 3.57 0 0 0-2.3 1.1c-.1.1-.3.3-.4.3a1.27 1.27 0 0 1-1-1.1 5.63 5.63 0 0 1 1.8-4.6q.9-.6 4.2-.6" class="cls-32 cls-31"/>
            <path d="M186.6 108.65c3 19.2-21 43.3-53.3 48.3s-56.1-23.9-59.1-43.2S91 101.85 123.3 97s60.3-7.5 63.3 11.7" class="cls-33 cls-20 cls-34"/>
            <path d="M102.3 137.88a19.3 19.3 0 0 1-1.9-4.7l-1.5-4.8a62.82 62.82 0 0 0-3.6-9.4 25.68 25.68 0 0 0-5.8-7.9 17.9 17.9 0 0 0-8.4-4.1 1.9 1.9 0 0 1-1.2-2.5 2 2 0 0 1 2.3-1.3 102.67 102.67 0 0 0 22.1 2.6 170.56 170.56 0 0 0 22.5-1.2 206 206 0 0 0 22.2-3.9c7.3-1.7 14.6-3.7 21.7-6.1a1.9 1.9 0 0 1 2.5 1.2 1.86 1.86 0 0 1-.6 2.1c-.2.2-.6.5-.9.8s-.6.7-.9 1c-.6.7-1.2 1.5-1.8 2.3a52.5 52.5 0 0 0-3.3 4.9c-2.2 3.3-4.2 6.7-6.1 10.2s-3.8 7-5.5 10.5q-1.34 2.7-2.4 5.4c-.4.9-.7 1.8-1.1 2.8a7.37 7.37 0 0 0-.4 1.4v.2c0 .1 0 .1-.1.2a.22.22 0 0 1-.2.2 1.38 1.38 0 0 1-.4.3 2.5 2.5 0 0 1-.7.4 31.36 31.36 0 0 1-5.8 1.6 55.83 55.83 0 0 1-5.9.9 119.34 119.34 0 0 1-11.9 1 78.6 78.6 0 0 1-11.9-.2 38.25 38.25 0 0 1-5.9-1 13.6 13.6 0 0 1-2.8-1.1 5.78 5.78 0 0 1-2.3-1.8m.1-.1a5.17 5.17 0 0 0 2.3 1.8 23.08 23.08 0 0 0 2.8 1 29 29 0 0 0 5.9.9 94.5 94.5 0 0 0 11.9.1c4-.2 7.9-.7 11.8-1.2 1.9-.3 3.9-.6 5.8-1.1a33.14 33.14 0 0 0 5.6-1.7 2.1 2.1 0 0 0 .6-.4q.3-.15.3-.3a8.33 8.33 0 0 1 .4-1.5l.9-2.9c.7-1.9 1.4-3.7 2.2-5.6 1.6-3.7 3.2-7.3 4.9-10.9s3.5-7.2 5.4-10.7c.9-1.8 1.9-3.5 3-5.3a23.27 23.27 0 0 1 1.7-2.6c.3-.4.6-.9.9-1.3a14.2 14.2 0 0 1 1.2-1.3l1.9 3.4a213.2 213.2 0 0 1-22.1 6.2 218.22 218.22 0 0 1-22.6 4 160.4 160.4 0 0 1-23 1.2 112.26 112.26 0 0 1-23-2.9l1.1-4c3.3 2 6.3 3.9 8.6 6.6a32.48 32.48 0 0 1 5.2 9 90 90 0 0 1 3 9.7c.4 1.6.9 3.3 1.3 4.9a20 20 0 0 0 2 4.9" class="cls-35 cls-17 cls-36"/>
            <path d="M102.33 137.9a18.6 18.6 0 0 1-1.9-4.6c-.5-1.6-.9-3.2-1.4-4.8a67.92 67.92 0 0 0-3.5-9.5 26.8 26.8 0 0 0-5.6-8 17.9 17.9 0 0 0-8.4-4.6v-.1a1 1 0 0 1-.6-1.3 1.1 1.1 0 0 1 1.2-.7 104.68 104.68 0 0 0 22.4 2.6 170.26 170.26 0 0 0 22.6-1.2c7.5-.9 14.9-2.3 22.3-3.9s14.7-3.7 21.8-6.1a1 1 0 0 1 1.3.6 1.13 1.13 0 0 1-.3 1.1 18.4 18.4 0 0 0-1.9 2c-.6.7-1.2 1.6-1.8 2.3-1.1 1.6-2.2 3.3-3.2 5-2.1 3.3-4.1 6.8-6 10.3s-3.7 7-5.3 10.6l-2.4 5.4a23.08 23.08 0 0 0-1 2.8 7.37 7.37 0 0 0-.4 1.4c-.1.4-.4.5-.6.7a2.5 2.5 0 0 1-.7.4 31.36 31.36 0 0 1-5.8 1.6c-1.9.4-3.9.7-5.9 1-3.9.5-7.9.9-11.9 1.1a78.6 78.6 0 0 1-11.9-.2 38.25 38.25 0 0 1-5.9-1 23.08 23.08 0 0 1-2.8-1 5.8 5.8 0 0 1-2.4-1.9m0-.1a6.2 6.2 0 0 0 2.3 1.9 23.08 23.08 0 0 0 2.8 1 29 29 0 0 0 5.9.9 78.8 78.8 0 0 0 11.9.1c4-.2 7.9-.6 11.9-1.2 1.9-.3 3.9-.6 5.9-1.1a26 26 0 0 0 5.6-1.7 2.1 2.1 0 0 0 .6-.4c.2-.1.4-.3.4-.4a8.33 8.33 0 0 1 .4-1.5 23.08 23.08 0 0 1 1-2.8c.7-1.9 1.5-3.7 2.3-5.5 1.6-3.7 3.3-7.2 5.1-10.8s3.6-7.1 5.6-10.6c1-1.8 2-3.5 3.1-5.1a22 22 0 0 1 1.7-2.5 15 15 0 0 1 2.1-2.4l1 1.8a211.43 211.43 0 0 1-22 6.2c-7.4 1.7-14.9 3-22.5 4a159 159 0 0 1-22.9 1.2 117.32 117.32 0 0 1-22.8-2.7l.5-1.9a22.45 22.45 0 0 1 8.6 5.9 31.26 31.26 0 0 1 5.3 8.7 77.18 77.18 0 0 1 3.2 9.6c.4 1.6.9 3.2 1.4 4.9a11.2 11.2 0 0 0 1.6 4.4" class="cls-37 cls-17 cls-36"/>
            <path d="M102.4 137.8c5.1 8 46.8 2.5 47.5-.7 1.8-8.1 16.8-36.7 21.6-40.7-8.6 3-53.3 17.3-89.6 8.6 16.3 5.5 16.5 26.6 20.5 32.8" class="cls-38"/>
            <path d="M171.35 96.55c-6.7 2.3-34.9 11.4-64.1 11.4a114.45 114.45 0 0 1-25.5-2.7c16.4 5.3 16.6 26.5 20.6 32.7 1.9 3 9.2 4.1 17.5 4.1 13.4 0 29.5-2.8 30-4.8 1.8-8.2 16.7-36.8 21.5-40.7m-5.6 3.9c-6.5 9.8-15.9 28.7-17.8 35.8-2.5 1.4-15.4 3.8-28.1 3.8-10.2 0-14.8-1.7-15.8-3.2s-1.8-4.3-2.6-7.5c-1.7-6.1-4.1-14.5-9.8-20.3a131.4 131.4 0 0 0 15.7.9c23.8-.1 47.1-6.1 58.4-9.5" class="cls-39 cls-38"/>
            <path d="M119.5 142c-8.6 0-14.2-1.2-16.4-3.6-.2-.2-.2-1.4.8-3.7 2.4-5.5 9.8-14.9 22.6-15.7.9 0 1.7-.1 2.5-.1 15 0 24 7.6 24 8.9-.2.4-.4 1-.7 1.8-.8 1.9-2 4.9-3.1 8.1-1.3 1.3-16.3 4.3-29.7 4.3" class="cls-14"/>
            <path d="M129 118.4a22.6 22.6 0 0 0-2.6.1c-17.5 1.1-25.6 18.4-23.8 20.5 2.6 2.8 9.3 3.8 16.9 3.8 13.5 0 29.8-3.1 30.3-4.6 1.5-4.5 3.2-8.2 3.9-10s-9.5-9.9-24.7-9.8m0 1.3c13.4 0 22.4 6.4 23.3 8.3a11.64 11.64 0 0 0-.6 1.5c-.8 1.9-2 4.7-3.1 7.9-2.1 1.2-16.1 3.9-29.1 3.9-8.1 0-13.7-1.2-15.8-3.3-.1-.7.6-3.5 3.1-7 2.2-3.2 8.6-10.7 19.7-11.3h2.5" class="cls-31"/>
            <path d="M102.88 137.92c-1.2 5.4 31.9-21.1 49.7-8.4 3.7-4.9-16-13.2-27.5-11.3-9.7 1.7-19.7 7.9-22.2 19.7" class="cls-40 cls-14"/>
            <path d="M109.6 109.4c1.7 3 4.8 17.6 6.1 17.9s9.5 2.6 10.6 2.1 1.1-3.3 2.3-2.5c1 .7 1.5 2 2.5 1.5 1.8-.9 7.1-4.2 8-5.6s.7-9.8 0-16.4c-3.4 1.6-23.5 3.7-29.5 3" class="cls-41"/>
            <path d="M139.15 106.45c-3 1.3-18.7 3.1-26.6 3.1a24.44 24.44 0 0 1-2.9-.1c1.7 3 4.8 17.6 6.1 17.9s8 2.2 10.1 2.2a.75.75 0 0 0 .5-.1c1-.4 1.1-2.6 1.9-2.6a.4.4 0 0 1 .4.2c.9.5 1.3 1.6 2.1 1.6a.6.6 0 0 0 .4-.1c1.8-.9 7.1-4.2 8-5.6s.7-9.8 0-16.5m-.5.9c.6 6.8.6 14 0 15.2s-5.5 4.3-7.7 5.4h-.1c-.2 0-.5-.3-.7-.6a9 9 0 0 0-1-.9 1.33 1.33 0 0 0-.8-.3c-.9 0-1.2.9-1.5 1.6-.2.4-.4 1-.7 1.1h-.3c-1.7 0-6.8-1.4-8.9-1.9a5.07 5.07 0 0 0-.9-.2c-.6-.7-1.9-5.4-2.9-8.8-.9-3.1-1.7-6-2.4-7.7h1.9c7.5 0 21.5-1.6 26-2.9" class="cls-42 cls-43"/>
            <path d="M112 116.45c-.5-5.4 24.4-7.2 27.5-6.7 0-1.3-.2-2.1-.2-3.6-4.1 2.1-26.5 4.3-29.5 3.4a46.88 46.88 0 0 1 2.2 6.9" class="cls-44 cls-45"/>
            <path d="M124.36 112.37c.5 1.2 1 2.3 1.4 3.5l1.2 3.6 1.1 3.6 1.1 3.6-1.7.5-.8-3.7-.9-3.7-.9-3.6c-.4-1.2-.7-2.4-1.1-3.5z" class="cls-46 cls-43"/>
            <path d="M40.18 27.72c13.2 3.4 11.1 26.2 18.9 28s18.2-18.8 19.2-23.3c-15.2-6.5-22.3-14.1-33.2-11.9-3.6.7-8.6 6.2-4.9 7.2" class="cls-47 cls-48 cls-14"/>
            <path d="M76.77 94.43c16.6 1.3 30.3 2 35.2-3.1s6.7-27.7 14.7-27.1c6.8.5 9.1 29.9 13.5 30.7s35.5 9.4 43.3 1.4 11.3-13 9.5-17.8-47.3-20.3-56.6-21.2-72.1 7-73.7 10.9-3.3 3.4-3 7.6c.6 8.1.5 17.3 17.1 18.6" class="cls-49 cls-17 cls-13"/>
            <path d="M123.3 61c1.2 0 5.9-.4 7 .5 6 4.7 5.8 24 12.1 30 5.6 5.4 36.2 9.3 41.5 3.2S197 70 198.8 68.6s5.8-2.3 7-4.2.2-10-2.6-9.6-8.1 2.1-11.4 1.2-19.4-11.1-59.9-5a26.9 26.9 0 0 1-10.5-.7c-2.7-.7-17.9-9.5-58.6-3.7-4 .6-9.6-1.2-11.6-1s-2.6 6.5-1.8 8.1 5 3 5.5 5 4.2 21.6 13.8 29.7c10.2 8.6 36.2 2.6 38.5 1 10.3-7.3 12.6-28.4 16.1-28.4" class="cls-38"/>
            <path d="M88.24 44.72a172 172 0 0 0-25.6 2 10.87 10.87 0 0 1-1.8.1c-3.5 0-7.6-1.1-9.5-1.1H51c-2 .2-2.6 6.5-1.8 8.1s5 3 5.5 5 4.2 21.6 13.8 29.7c4 3.4 10.6 4.5 17.2 4.5 10 0 19.9-2.5 21.3-3.5 10.4-7.4 12.8-28.5 16.3-28.5.5 0 1.8-.1 3-.1 1.6 0 3.3.1 3.9.5 6 4.7 5.8 24 12.1 30 3.6 3.4 17.4 6.3 28.2 6.3 6.1 0 11.3-.9 13.2-3.1 5.3-6.1 13.1-24.7 14.9-26.1s5.8-2.3 7-4.2.2-9.6-2.5-9.6h-.2c-2.2.3-6 1.4-9.1 1.4a8.52 8.52 0 0 1-2.3-.3c-2.6-.8-12.7-6.9-35.7-6.9a161.87 161.87 0 0 0-24.2 1.9 18.84 18.84 0 0 1-3.3.2 28.56 28.56 0 0 1-7.1-.9c-2-.2-11.2-5.4-33-5.4m0 2c18.1 0 27.4 3.6 30.8 5a8.8 8.8 0 0 0 1.7.6 34.2 34.2 0 0 0 7.6 1 21 21 0 0 0 3.6-.3 158.52 158.52 0 0 1 23.9-1.9c19 0 28.9 4.2 33.2 6.1.9.4 1.5.6 2 .8a8.85 8.85 0 0 0 2.9.4 35 35 0 0 0 6.6-.9c.9-.2 1.8-.4 2.5-.5.9 1 1.5 5.4 1 6.6-.4.6-2.1 1.4-3.3 1.9a14.88 14.88 0 0 0-3.1 1.6c-1.1.8-2.2 2.9-5.4 9.3-3.1 6.1-6.9 13.7-9.8 17-1 1.2-4.6 2.4-11.8 2.4-10.5 0-23.9-2.8-26.9-5.7-2.8-2.6-4.2-8.7-5.6-14.6-1.6-6.6-3.1-12.8-6.6-15.6-.9-.7-2.3-1-5.1-1h-3.1c-2.8 0-4 3.3-6.1 9.3-2.3 6.6-5.6 15.5-11.3 19.6-1.3.8-10.7 3.2-20.2 3.2-7.3 0-12.8-1.4-15.9-4-3.8-3.2-9.1-10.7-12.9-27.8a5.07 5.07 0 0 1-.2-.9c-.5-1.9-2.3-3-3.8-4a10.27 10.27 0 0 1-1.8-1.4c-.4-.9 0-4.2.6-5.3a18.65 18.65 0 0 1 2.8.4 43.14 43.14 0 0 0 6.5.7 7.14 7.14 0 0 0 2.1-.2 208.6 208.6 0 0 1 25.1-1.8" class="cls-50 cls-51"/>
            <path d="M66 59.05c-.9 1.2-1.5 18.9 6 23.7 4.9 3.2 25.7 2.5 29.9.2 6.5-3.7 12.9-20.5 11.1-22.9-3-4-24.6-9.3-40.8-5.1a13.3 13.3 0 0 0-6.2 4.1z" class="cls-52 cls-17 cls-53"/>
            <path d="M66 59c-.9 1.2-1.5 18.9 6 23.7 4.9 3.2 25.7 2.5 29.9.2 6.5-3.7 12.9-20.5 11.1-22.9-3-4-24.6-9.3-40.8-5.1A14.1 14.1 0 0 0 66 59" class="cls-2"/>
            <path d="M188.2 66.76c.8 1.3-1 18.9-9 22.8-5.3 2.5-25.8-.9-29.6-3.7-6-4.5-10.2-22-8.1-24.2 3.5-3.6 25.6-6 41.1.2a14.06 14.06 0 0 1 5.6 4.9z" class="cls-54 cls-17 cls-53"/>
            <path d="M188.2 66.8c.8 1.3-1 18.9-9 22.8-5.3 2.5-25.8-.9-29.6-3.7-6-4.5-10.2-22-8.1-24.2 3.5-3.6 25.6-6 41.1.2a14 14 0 0 1 5.6 4.9" class="cls-2"/>
            <path d="M89.7 69.8c-.5 3.9-2.5 6.8-4.4 6.5s-2.9-3.6-2.4-7.5 2.5-6.8 4.4-6.5 2.9 3.6 2.4 7.5m79.7 4.4c.4 3.9-.8 7.2-2.6 7.4s-3.7-2.8-4.1-6.7.8-7.2 2.6-7.4 3.6 2.9 4.1 6.7"/>
            <path d="M51.27 51.35c2.3 1.5 4.4.6 4.9 3.6s7.4 29 16 32c14.1 4.9 31.9.1 34.3-1.4s13.7-26.8 15.6-27.8 7.9.1 9.2.7c3.9 1.7 11.1 29.1 13 30.5 8.7 6.1 36.6 5.6 37.9 4s11.8-25.6 13.7-27c2.7-2.1 9-3.5 9.2-2.6s-5.1 1.8-6.7 3.7S186.27 92 183 94s-27.7 5.3-40.1-3.4c-5.9-4.2-8.2-29.1-12.9-30.5a12.9 12.9 0 0 0-7.5-.2c-2.9 1.9-7 23.1-15.7 28.4-3.5 2.1-30.6 7.4-38.7-1.1C53 71.4 57.6 57.3 52.7 55.3c-3.3-1.4-4-3.2-4-4.4.3-1.3 1.4-.3 2.6.5" class="cls-55 cls-6 cls-38"/>
            <path d="M51.55 46.05c-1.6-.6 6.8 2.9 9.9 2.7s8.3-2.4 10-2.9c1.5-.5-7.8 1.2-10.1 1.1a97.65 97.65 0 0 1-9.8-.9" class="cls-56 cls-6 cls-38"/>
            <path d="M116.4 50.75c2.9 1.3 4.2 4.6 7 4.9s6.2.8 7.8-.1 5.6-3 6.7-3.2-8.7 1.3-12.4 1-8-2.5-9.1-2.6" class="cls-57 cls-6 cls-38"/>
            <path d="M187.37 54.58c-1.2-.5 4.4 4 6.1 3.8s4.7-2.1 6-2.6c1-.4-4 1-5.5.7a33.72 33.72 0 0 1-6.6-1.9" class="cls-58 cls-6 cls-38"/>
            <path d="M62.85 56.43c7.4-7.3 25-4.8 28.2-4.2-21.1 1.5-21.5 3.1-25.2 6.8-.5 2.9-1.2 12.5 2.1 20.9-3.7-2-7.6-21-5.1-23.5" class="cls-59 cls-6 cls-38"/>
            <path d="M192.26 64.3c-6.4-8.2-24.1-8.1-27.4-7.8 20.7 4.3 20.9 5.9 24.1 10.1a43.45 43.45 0 0 1-4.7 20.4c3.8-1.6 10.1-20 8-22.7" class="cls-60 cls-6 cls-38"/>
            <path d="M66.2 71.18c.7-8.6 1.5-15.6 18.6-16.1 13.7-.4 24.6 2.8 26.1 6.1 1 2.1.2 11.3-6.6 19.7 4.4-3.9 11.4-19.4 8.4-21.3-11.1-7.1-33.2-7.3-41.4-4.4a15.6 15.6 0 0 0-5.5 4c-.3 2.2-.3 10.8.4 12" class="cls-61 cls-62"/>
            <path d="M66.68 71.8c2.6 16.8 33.3 11.7 35.1 11-.1.9-16.1 5.4-29.5.2-5.4-2-5.8-13.1-5.6-11.2" class="cls-63 cls-62"/>
            <path d="M186.76 78.7c.4-8.7.4-15.6-16.4-18.2-13.5-2.1-24.7-.3-26.7 2.8-1.2 1.9-1.6 11.2 4.2 20.4-3.9-4.5-9-20.6-5.7-22.2 11.9-5.7 33.9-3.2 41.6.7a14.5 14.5 0 0 1 5 4.7c-.1 2.1-1.1 10.7-2 11.8" class="cls-64 cls-62"/>
            <path d="M186.18 79.2c-4.6 16.3-34.5 7.5-36.2 6.6 0 .9 15.3 7.3 29.3 3.9 5.6-1.4 7.5-12.4 6.9-10.5" class="cls-65 cls-62"/>
            <path d="M89.17 64.8a1 1 0 0 0-1-1 1 1 0 1 0 1 1" class="cls-66 cls-20 cls-2"/>
            <path d="M168.17 69.5a1 1 0 0 0-2 0 .94.94 0 0 0 1 1 1.08 1.08 0 0 0 1-1" class="cls-67 cls-20 cls-2"/>
            <path d="M51.82 50.27c2.4 2.7 3.9 3 7.1 2.6 31.1-4 48.3-3.9 56.8 4 1.8 1.7.8-5.1-2.6-6-26.2-6.9-45.2-.7-49.2-.2s-7-.3-12.1-.4" class="cls-68 cls-69 cls-62"/>
            <path d="M137.82 54.27c-.7.7-.4 7.9 3 5.2 9.8-7.8 30.3-6 44.6-1.2-2.3-4.5-19-7.6-28.4-7.5-4.5.2-17.3 1.5-19.2 3.5" class="cls-70 cls-69 cls-62"/>
            <path d="M197 60c0 .3-1.6.5-3.5.5s-3.5-.2-3.5-.5 1.6-.5 3.5-.5 3.5.3 3.5.5M62.2 51.4c0 .3-1.6.3-3.5 0s-3.4-.8-3.3-1.1 1.6-.3 3.5 0 3.4.7 3.3 1.1" class="cls-62"/>
            <path d="M255.84 211.64c-.6-6.1-5.1-8.8-9.2-8.8a9.7 9.7 0 0 0-4 .8l-.8.4-.7.5a18.42 18.42 0 0 1-4.2 2.3 20.34 20.34 0 0 1 .2-4.2v-.2c1.1-10.7-1.1-17-6.7-18.6a9.25 9.25 0 0 0-2.9-.4 14.47 14.47 0 0 0-8.3 3c-1.6-2.1-4.4-3.2-7.8-3.2-5.1 0-9.2 2.4-10.7 6.2a9.3 9.3 0 0 0-.6 1.8c-3-6.6-9.1-9.1-14.8-9.1-5.4 0-10.6 2.1-12.5 3.6-.1.1-.2.1-.3.2a37.36 37.36 0 0 0-11.9 13.7 21.85 21.85 0 0 0-9.7-12.5l-.1-.1c-.2-.1-.3-.2-.4-.2 5.3-9.3 9.9-21.7 7.1-33.5-3-12.6-10.4-14.4-14.5-14.4a16.85 16.85 0 0 0-5.3.9h-.2c-7.8 3.1-11.2 7.7-12 8.8a79.1 79.1 0 0 0-11.4 33.2c-.2 2.1-.5 4.3-.7 6.5a11.3 11.3 0 0 0-6.3-4.2 10.32 10.32 0 0 0-3-.4c-4.3 0-7.8 2.6-9.7 4.4a8.87 8.87 0 0 0-7.1-4h-.7a16.6 16.6 0 0 0-10.9 4.3 9.75 9.75 0 0 0-8.6-4.9h-1.5c-5.1 0-9.1 2.4-10.7 6.4a8.35 8.35 0 0 0-.4 1.2c-4-5-9.1-7.3-16-7.3h-.7c-4.3.1-14.9 1.9-21.5 16.6a50.44 50.44 0 0 0-2.4 6.8 8.24 8.24 0 0 0-3.7-.8 8.6 8.6 0 0 0-7.2 3.8c-1 1.5-4.2 6.7-2.6 11.9a9.3 9.3 0 0 0 5.6 6c2.5 1 5.6 1.9 7.9 2.6a26.2 26.2 0 0 0 8.6 10.5c3.2 2.5 7.4 3.7 12.2 3.7a44.66 44.66 0 0 0 16.9-3.9l.3-.2.1-.1a11.67 11.67 0 0 0 6.2 3.3 12.62 12.62 0 0 0 3 .3c4.4 0 7.5-2.3 10.4-6.5 2.3 3.7 6.6 5.7 11.6 5.7.3 0 .5.2.9.2 2.6 0 6-.9 8.7-5.4a12.8 12.8 0 0 0 11.5 6.5 21 21 0 0 0 9-2.2l.2-.1c1.5-.8 2.7-1.5 3.7-2a30.38 30.38 0 0 0 14.5 3.7 17.2 17.2 0 0 0 3.2-.2h.6c13-2.6 21.5-5.7 26.6-8.1a25 25 0 0 0 17.2 8.4 24.37 24.37 0 0 0 2.7.1 34.26 34.26 0 0 0 15.8-3.9 13.2 13.2 0 0 0 4.8 3.3 9.7 9.7 0 0 0 3.7.7c8.1 0 11.9-9.6 12.9-12.9l1.9-5.2a14.66 14.66 0 0 0 6.7 4.1 19.2 19.2 0 0 0 4.8.7c8.9 0 17.5-6.3 18.8-7.4a15.3 15.3 0 0 0 4.4-12.2" class="cls-2"/>
            <path d="M174.15 214.3s-1.1-4 3.1-11.6 7.4-3.5 7.4-3.5 3.6 3.9-.5 9.7a12.07 12.07 0 0 1-10 5.4m-32.1 5.5c-4.8 12.5-16.4 7.4-16.4 7.4s-1.3-4.5 2.5-17 12.6-7.6 12.6-7.6 6.1 4.7 1.3 17.2m-8.7-52.5s7.2-18.9 9-9.7-15.2 36.5-15.2 36.5c.2-6.1 6.2-26.8 6.2-26.8m-103.5 47c.3-12.1 8.2-17.4 11-14.8s1.8 8.4-3.5 11.9c-5.1 3.6-7.5 2.9-7.5 2.9m219.3-2c-.4-4.1-4.1-2.6-4.1-2.6s-5.9 4.6-11.1 4.1-3.5-12.1-3.5-12.1 1.1-10.7-1.9-11.6-6.8 2.8-6.8 2.8a37.77 37.77 0 0 0-6.9 11.8l-.6.2s.7-11.6-.1-14.3c-.6-1.3-6.2-1.2-7.1 1.1s-5.4 18.6-5.7 25.5c0 0-8.8 7.4-16.4 8.7s-9.5-3.6-9.5-3.6 20.8-5.8 20.1-22.4-16.8-10.5-18.6-9.1-11.1 7-13.9 22.6c-.1.5-.3 2.9-.3 2.9s-8.1 5.4-12.5 6.8c0 0 12.5-21.1-2.8-30.7-6.9-4.2-12.5 4.6-12.5 4.6s20.7-23 16.1-42.5c-2.2-9.3-6.8-10.3-11.1-8.8-6.5 2.6-8.9 6.3-8.9 6.3a70.4 70.4 0 0 0-10.3 30.2c-1.9 18.1-4.8 39.8-4.8 39.8s-4 3.9-7.6 4.1-2-10.9-2-10.9 2.8-16.9 2.6-19.8-.4-4.4-3.8-5.4-7 3.3-7 3.3-9.7 14.7-10.5 16.9l-.5.9-.5-.6s6.8-20 .3-20.3-10.8 7.1-10.8 7.1-7.4 12.5-7.7 13.9l-.5-.6s3.1-14.5 2.5-18.1a3.2 3.2 0 0 0-4-2.8s-4.3-.5-5.4 2.3-5.2 21-5.7 26.8c0 0-10.7 7.7-17.7 7.7s-6.3-4.5-6.3-4.5 25.8-8.8 18.8-26.3c-3.2-4.5-6.8-5.9-12-5.8s-11.3 3.3-15.5 12.6a30.2 30.2 0 0 0-2.8 11.9s-4.8.9-7.3-1.1-3.9 0-3.9 0-4.3 6.1-.1 7.7 10.6 3.2 10.6 3.2a18.68 18.68 0 0 0 7.4 10.8c7.6 5.8 22.3-.9 22.3-.9l6-3.6s.2 5.4 4.6 6.2 6.2-.1 13.9-18.6c4.5-9.5 4.8-9 4.8-9l.5-.1s-3.5 18.1-2.1 23 7.1 4.4 7.1 4.4 3.2 1.1 5.7-7.9a121.6 121.6 0 0 1 7.4-18.4h.6s-2.1 18.1 1.1 24 11.7 1.8 11.7 1.8 5.9-3.1 6.8-4a24.06 24.06 0 0 0 16.9 4.8c22.1-4.4 30-10.3 30-10.3a18.28 18.28 0 0 0 15.6 10.5c13.5 1 20.8-7.5 20.8-7.5s-.1 5.5 4.6 7.4 7.9-8.3 7.9-8.3l7.9-21.1h.7s.4 13.5 8.2 15.7 17.9-5.6 17.9-5.6 2.2-1.1 1.7-5.2" class="cls-71"/>
        </g>
    </g>
</svg>